{
    "IsEncrypted": false,
  "Values": {
    "AzureWebJobsStorage": "UseDevelopmentStorage=true",
    "FUNCTIONS_WORKER_RUNTIME": "dotnet",
    "AuthClientId": "GatewayService",
    "AuthClientSecretTEST": "Test",
    "AuthClientSecretPROD": "",
    "TokenUrlTEST": "https://ids-uat.rvslabs.io/core/connect/token",
    "TokenUrlPROD": "",
    "EntitlementsServiceProcessExpiredSubscriptions-TEST": "http://localhost:5004/api/subscriptions/ProcessExpiredSubscriptions",
    "EntitlementsServiceProcessExpiredSubscriptions-PROD": ""
  }
}